{
  "images" : [
    {
      "idiom" : "iphone",
      "scale" : "1x",
      "filename" : "player_progress_bar_bg_white_left.png"
    },
    {
      "idiom" : "iphone",
      "scale" : "2x",
      "filename" : "player_progress_bar_bg_white_left@2x.png"
    },
    {
      "idiom" : "iphone",
      "scale" : "3x",
      "filename" : "player_progress_bar_bg_white_left@3x.png"
    },
    {
      "idiom" : "ipad",
      "scale" : "1x",
      "filename" : "player_progress_bar_bg_branded_left.png"
    },
    {
      "idiom" : "ipad",
      "scale" : "2x",
      "filename" : "player_progress_bar_bg_branded_left@2x.png"
    }
  ],
  "info" : {
    "version" : 1,
    "author" : "xcode"
  }
}