{
  "images" : [
    {
      "idiom" : "iphone",
      "scale" : "1x",
      "filename" : "player_play.png"
    },
    {
      "idiom" : "iphone",
      "scale" : "2x",
      "filename" : "player_play@2x.png"
    },
    {
      "idiom" : "iphone",
      "scale" : "3x",
      "filename" : "player_play@3x.png"
    },
    {
      "idiom" : "ipad",
      "scale" : "1x",
      "filename" : "player_play_icon.png"
    },
    {
      "idiom" : "ipad",
      "scale" : "2x",
      "filename" : "player_play_icon@2x.png"
    }
  ],
  "info" : {
    "version" : 1,
    "author" : "xcode"
  }
}